{
    "LabelExit": "Esci",
    "ScheduledTaskCancelledWithName": "{0} cancellati",
    "LabelVisitCommunity": "Visita Comunit\u00e0",
    "ScheduledTaskCompletedWithName": "{0} completati",
    "LabelGithubWiki": "Github Wiki",
    "ScheduledTaskFailed": "Operazione pianificata completata",
    "LabelSwagger": "Swagger",
    "PluginInstalledWithName": "{0} sono stati Installati",
    "LabelStandard": "Standard",
    "PluginUpdatedWithName": "{0} sono stati aggiornati",
    "LabelViewApiDocumentation": "Documentazione Api",
    "PluginUninstalledWithName": "{0} non sono stati installati",
    "LabelBrowseLibrary": "Esplora la libreria",
    "ScheduledTaskFailedWithName": "{0} Falliti",
    "LabelConfigureMediaBrowser": "Configura Media Browser",
    "ItemAddedWithName": "{0} aggiunti alla libreria",
    "LabelOpenLibraryViewer": "Apri visualizzatore libreria",
    "ItemRemovedWithName": "{0} rimossi dalla libreria",
    "LabelRestartServer": "Riavvia Server",
    "DeviceOnlineWithName": "{0} \u00e8 connesso",
    "LabelShowLogWindow": "Mostra Finestra log",
    "UserOnlineFromDevice": "{0} \u00e8 online da {1}",
    "LabelPrevious": "Precedente",
    "DeviceOfflineWithName": "{0} \u00e8 stato disconesso",
    "LabelFinish": "Finito",
    "UserOfflineFromDevice": "{0} \u00e8 stato disconesso da {1}",
    "LabelNext": "Prossimo",
    "SubtitlesDownloadedForItem": "Sottotitoli scaricati per {0}",
    "LabelYoureDone": "Tu hai Finito!",
    "SubtitleDownloadFailureForItem": "Sottotitoli non scaricati per {0}",
    "WelcomeToMediaBrowser": "Benvenuto in Media browser!",
    "LabelRunningTimeValue": "Durata: {0}",
    "TitleMediaBrowser": "Media browser",
    "LabelIpAddressValue": "Indirizzo IP: {0}",
    "ThisWizardWillGuideYou": "Procedura Guidata per l'installazione.",
    "UserConfigurationUpdatedWithName": "Configurazione utente \u00e8 stata aggiornata per {0}",
    "TellUsAboutYourself": "Parlaci di te",
    "UserCreatedWithName": "Utente {0} \u00e8 stato creato",
    "LabelYourFirstName": "Nome",
    "UserPasswordChangedWithName": "Password utente cambiata per {0}",
    "MoreUsersCanBeAddedLater": "Puoi aggiungere altri utenti in un secondo momento all'interno del pannello di configurazione",
    "UserDeletedWithName": "Utente {0} \u00e8 stato cancellato",
    "UserProfilesIntro": "Media Browser include il supporto integrato per i profili utente, permettendo ad ogni utente di avere le proprie impostazioni di visualizzazione.",
    "MessageServerConfigurationUpdated": "Configurazione server aggioprnata",
    "LabelWindowsService": "Servizio Windows",
    "MessageNamedServerConfigurationUpdatedWithValue": "La sezione  {0} \u00e8 stata aggiornata",
    "AWindowsServiceHasBeenInstalled": "Servizio Windows Installato",
    "MessageApplicationUpdated": "Media Browser Server \u00e8 stato aggiornato",
    "WindowsServiceIntro1": "Media Browser  Server, normalmente viene eseguito come un'applicazione desktop con una icona nella barra, ma se si preferisce farlo funzionare come un servizio in background, pu\u00f2 essere avviato dal pannello di controllo dei servizi di Windows, invece.",
    "AuthenticationSucceededWithUserName": "{0} Autenticati con successo",
    "WindowsServiceIntro2": "Se si utilizza il servizio di Windows, si ricorda che non pu\u00f2 essere eseguito allo stesso tempo come l'icona di sistema, quindi  devi chiudere l'applicazione al fine di eseguire il servizio. Il servizio dovr\u00e0 anche essere configurato con privilegi amministrativi tramite il pannello di controllo. Si prega di notare che in questo momento il servizio non \u00e8 in grado di Autoaggiornarsi, quindi le nuove versioni richiedono l'interazione manuale",
    "FailedLoginAttemptWithUserName": "Login fallito da  {0}",
    "WizardCompleted": "Questo \u00e8 tutto abbiamo bisogno per ora. Browser Media ha iniziato a raccogliere informazioni sulla vostra libreria multimediale. Scopri alcune delle nostre applicazioni, quindi fare clic su <b>Finito<\/b> per aprire<b>il pannello di controllo<\/b>.",
    "UserStartedPlayingItemWithValues": "{0} \u00e8 partito da {1}",
    "LabelConfigureSettings": "Configura",
    "UserStoppedPlayingItemWithValues": "{0} stoppato {1}",
    "LabelEnableVideoImageExtraction": "Estrazione immagine video non possibile",
    "AppDeviceValues": "App: {0}, Dispositivo: {1}",
    "VideoImageExtractionHelp": "Per i video che sono sprovvisti di immagini,e che non siamo riusciti a trovarle su Internet.Questo aggiunger\u00e0 del tempo addizionale alla scansione della tua libreria ma si tradurr\u00e0 in una presentazione pi\u00f9 piacevole.",
    "ProviderValue": "Provider: {0}",
    "LabelEnableChapterImageExtractionForMovies": "Estrazione immagine capitolo estratto per Film",
    "LabelChannelDownloadSizeLimit": "Dimensione massima Download (GB):",
    "LabelChapterImageExtractionForMoviesHelp": "L'Estrazione di immagini capitoli permetter\u00e0 ai clienti di visualizzare i menu di selezione delle scene . Il processo pu\u00f2 essere lento e pu\u00f2 richiedere diversi gigabyte di spazio. Viene schedulato alle 04:00, anche se questo \u00e8 configurabile nella zona di operazioni pianificate. Non \u00e8 consigliabile eseguire questa operazione durante le ore di picco.",
    "LabelChannelDownloadSizeLimitHelp": "Limitare la dimensione della cartella canale di download. Download di oltre 500MB richiede un abbonamento attivo sostenitore.",
    "HeaderRecentActivity": "Attivit\u00e0 recenti",
    "LabelEnableAutomaticPortMapping": "Abilita mappatura delle porte automatiche",
    "HeaderPeople": "Persone",
    "LabelEnableAutomaticPortMappingHelp": "UPnP consente la configurazione automatica del router per l'accesso remoto facile. Questo potrebbe non funzionare con alcuni modelli di router.",
    "HeaderDownloadPeopleMetadataFor": "Scarica biografia e immagini per:",
    "ButtonOk": "OK",
    "OptionComposers": "Compositori",
    "ButtonCancel": "Annulla",
    "OptionOthers": "Altri",
    "ButtonNew": "Nuovo",
    "HeaderSetupLibrary": "Configura la tua libreria",
    "HeaderDownloadPeopleMetadataForHelp": "Abilitando il provider scaricher\u00e0 pi\u00f9 informazioni ( la scansione sar\u00e0 pi\u00f9 lenta)",
    "ButtonAddMediaFolder": "Aggiungi cartella",
    "ViewTypeFolders": "Cartelle",
    "LabelFolderType": "Tipo cartella",
    "LabelDisplayFoldersView": "Display a folders view to show plain media folders",
    "MediaFolderHelpPluginRequired": "* Richiede l'uso di un plugin, ad esempio GameBrowser o MB Bookshelf.",
    "ViewTypeLiveTvRecordingGroups": "Registrazioni",
    "ReferToMediaLibraryWiki": "Fare riferimento alla wiki libreria multimediale.",
    "ViewTypeLiveTvChannels": "canali",
    "LabelCountry": "Nazione:",
    "LabelAllowLocalAccessWithoutPassword": "Consenti di accedere localmente senza password",
    "LabelLanguage": "lingua:",
    "LabelAllowLocalAccessWithoutPasswordHelp": "Quando abilitato la password non \u00e8 necessaria",
    "HeaderPreferredMetadataLanguage": "Lingua dei metadati preferita:",
    "HeaderPassword": "Password",
    "LabelSaveLocalMetadata": "Salva immagini e metadati nelle cartelle multimediali",
    "HeaderLocalAccess": "Accesso locale",
    "LabelSaveLocalMetadataHelp": "Il salvataggio di immagini e dei metadati direttamente nelle cartelle multimediali verranno messe in un posto dove possono essere facilmente modificate.",
    "HeaderViewOrder": "Visualizza ordine",
    "LabelDownloadInternetMetadata": "Scarica immagini e dei metadati da internet",
    "LabelSelectUserViewOrder": "Scegliere l'ordine vostre opinioni verranno visualizzati in applicazioni all'interno del browser media",
    "LabelDownloadInternetMetadataHelp": "Media Browser pu\u00f2 scaricare informazioni sui vostri media per consentire presentazioni migliori.",
    "LabelMetadataRefreshMode": "Metadata (modo Aggiornamento)",
    "TabPreferences": "Preferenze",
    "LabelImageRefreshMode": "Immagine (modo Aggiornamento)",
    "TabPassword": "Password",
    "OptionDownloadMissingImages": "Immagini mancanti",
    "TabLibraryAccess": "Accesso libreria",
    "OptionReplaceExistingImages": "Sovrascrivi immagini esistenti",
    "TabImage": "Immagine",
    "OptionRefreshAllData": "Aggiorna tutti i dati",
    "TabProfile": "Profilo",
    "OptionAddMissingDataOnly": "Aggiungi solo dati mancanti",
    "TabMetadata": "Metadata",
    "OptionLocalRefreshOnly": "Aggiorna solo locale",
    "TabImages": "Immagini",
    "HeaderRefreshMetadata": "Aggiorna metadati",
    "TabNotifications": "Notifiche",
    "HeaderPersonInfo": "Persona Info",
    "TabCollectionTitles": "Titolo",
    "HeaderIdentifyItem": "Identifica elemento",
    "LabelDisplayMissingEpisodesWithinSeasons": "Visualizza gli episodi mancanti  nelle stagioni",
    "HeaderIdentifyItemHelp": "Inserisci uno o pi\u00f9 criteri di ricerca. Rimuovi criteri di aumentare i risultati di ricerca.",
    "LabelUnairedMissingEpisodesWithinSeasons": "Visualizzare episodi mai andati in onda all'interno stagioni",
    "HeaderConfirmDeletion": "Conferma Cancellazione",
    "HeaderVideoPlaybackSettings": "Impostazioni di riproduzione video",
    "LabelFollowingFileWillBeDeleted": "Il seguente file verr\u00e0 eliminato:",
    "HeaderPlaybackSettings": "Impostazioni di riproduzione",
    "LabelIfYouWishToContinueWithDeletion": "Se si desidera continuare, si prega di confermare inserendo il valore di:",
    "LabelAudioLanguagePreference": "Audio preferenze di lingua:",
    "ButtonIdentify": "Identifica",
    "LabelSubtitleLanguagePreference": "Sottotitoli preferenze di lingua:",
    "LabelAlbumArtist": "Artista Album",
    "OptionDefaultSubtitles": "Predefinito",
    "LabelAlbum": "Album:",
    "OptionOnlyForcedSubtitles": "Solo i sottotitoli forzati",
    "LabelCommunityRating": "Voto Comunit\u00e0:",
    "OptionAlwaysPlaySubtitles": "Visualizza sempre i sottotitoli",
    "LabelVoteCount": "Totale Voti:",
    "OptionNoSubtitles": "Nessun Sottotitolo",
    "LabelMetascore": "Punteggio:",
    "OptionDefaultSubtitlesHelp": "Sottotitoli corrispondenti alla lingua di preferenza saranno caricati quando l'audio \u00e8 in una lingua straniera.",
    "LabelCriticRating": "Voto dei critici:",
    "OptionOnlyForcedSubtitlesHelp": "Solo sottotitoli contrassegnati come forzati saranno caricati.",
    "LabelCriticRatingSummary": "Critico sintesi valutazione:",
    "OptionAlwaysPlaySubtitlesHelp": "Sottotitoli corrispondenti alla lingua di preferenza saranno caricati a prescindere dalla lingua audio.",
    "LabelAwardSummary": "Sintesi Premio:",
    "OptionNoSubtitlesHelp": "I sottotitoli non verranno caricati di default.",
    "LabelWebsite": "Sito web:",
    "TabProfiles": "Profili",
    "LabelTagline": "Messaggio pers:",
    "TabSecurity": "Sicurezza",
    "LabelOverview": "Trama:",
    "ButtonAddUser": "Aggiungi Utente",
    "LabelShortOverview": "Trama breve:",
    "LabelReleaseDate": "Data di rilascio:",
    "ButtonAddLocalUser": "Aggiungi Utente locale",
    "LabelYear": "Anno:",
    "ButtonInviteMediaBrowserUser": "Invita un utente",
    "ButtonSave": "Salva",
    "LabelPlaceOfBirth": "Luogo di nascita:",
    "ButtonResetPassword": "Reset Password",
    "LabelEndDate": "Fine data:",
    "LabelNewPassword": "Nuova Password:",
    "LabelAirDate": "In onda da (gg):",
    "LabelNewPasswordConfirm": "Nuova Password Conferma:",
    "LabelAirTime:": "In onda da:",
    "HeaderCreatePassword": "Crea Password",
    "LabelRuntimeMinutes": "Durata ( minuti):",
    "LabelCurrentPassword": "Password Corrente:",
    "LabelParentalRating": "Voto genitori:",
    "LabelMaxParentalRating": "Massima valutazione dei genitori consentita:",
    "LabelCustomRating": "Voto personalizzato:",
    "MaxParentalRatingHelp": "Contento di un punteggio pi\u00f9 elevato sar\u00e0 nascosto da questo utente.",
    "LabelBudget": "Budget",
    "LibraryAccessHelp": "Selezionare le cartelle multimediali da condividere con questo utente. Gli amministratori saranno in grado di modificare tutte le cartelle utilizzando il gestore dei metadati.",
    "LabelRevenue": "Fatturato ($):",
    "ChannelAccessHelp": "Selezionare i canali da condividere con questo utente. Gli amministratori saranno in grado di modificare tutti i canali usando il gestore dei metadati",
    "LabelOriginalAspectRatio": "Aspetto originale:",
    "ButtonDeleteImage": "Elimina immagine",
    "LabelPlayers": "Giocatore:",
    "LabelSelectUsers": "Seleziona Utenti:",
    "Label3DFormat": "Formato 3D:",
    "ButtonUpload": "Carica",
    "HeaderAlternateEpisodeNumbers": "Numeri Episode alternativi",
    "HeaderUploadNewImage": "Carica nuova immagine",
    "HeaderSpecialEpisodeInfo": "Episodio Speciale Info",
    "LabelDropImageHere": "Trascina l'immagine qui",
    "HeaderExternalIds": "Esterno Id di :",
    "ImageUploadAspectRatioHelp": "1:1 Aspect Ratio Recommended. JPG\/PNG only.",
    "LabelDvdSeasonNumber": "Dvd stagione:",
    "MessageNothingHere": "Niente qui.",
    "LabelDvdEpisodeNumber": "Numero episodio Dvd:",
    "MessagePleaseEnsureInternetMetadata": "Assicurarsi che download di metadati internet \u00e8 abilitata.",
    "LabelAbsoluteEpisodeNumber": "Absolute Numero episodio:",
    "TabSuggested": "Suggeriti",
    "LabelAirsBeforeSeason": "tempo prima della stagione:",
    "TabLatest": "Novit\u00e0",
    "LabelAirsAfterSeason": "tempo dopo della stagione:",
    "TabUpcoming": "IN ONDA A BREVE",
    "LabelAirsBeforeEpisode": "tempo prima episodio:",
    "TabShows": "Serie",
    "LabelTreatImageAs": "Trattare come immagine:",
    "TabEpisodes": "Episodi",
    "LabelDisplayOrder": "Ordine visualizzazione:",
    "TabGenres": "Generi",
    "LabelDisplaySpecialsWithinSeasons": "Display specials within seasons they aired in",
    "TabPeople": "Attori",
    "HeaderCountries": "Paesi",
    "TabNetworks": "Internet",
    "HeaderGenres": "Generi",
    "HeaderUsers": "Utenti",
    "HeaderPlotKeywords": "Trama",
    "HeaderFilters": "Filtri",
    "HeaderStudios": "Studios",
    "ButtonFilter": "Filtro",
    "HeaderTags": "Tags",
    "OptionFavorite": "Preferiti",
    "HeaderMetadataSettings": "Impostazioni metadati",
    "OptionLikes": "Belli",
    "LabelLockItemToPreventChanges": "Bloccare questa voce per impedire modifiche future",
    "OptionDislikes": "Brutti",
    "MessageLeaveEmptyToInherit": "Lasciare vuoto per ereditare le impostazioni da un elemento principale, o il valore predefinito globale.",
    "OptionActors": "Attori",
    "TabDonate": "Dona",
    "OptionGuestStars": "Guest Stars",
    "HeaderDonationType": "Tipo di donazione:",
    "OptionDirectors": "Registra",
    "OptionMakeOneTimeDonation": "Fai una donazione separata",
    "OptionWriters": "Scrittore",
    "OptionOneTimeDescription": "Si tratta di una donazione aggiuntiva alla squadra per mostrare il vostro sostegno. Non ha alcun beneficio e non produrr\u00e0 una chiave sostenitore.",
    "OptionProducers": "Produttore",
    "OptionLifeTimeSupporterMembership": "Appartenenza supporter Lifetime",
    "HeaderResume": "Riprendi",
    "OptionYearlySupporterMembership": "Appartenenza supporter annuale",
    "HeaderNextUp": "Da vedere",
    "OptionMonthlySupporterMembership": "Appartenenza supporter mensile",
    "NoNextUpItemsMessage": "Trovato nessuno.Inizia a guardare i tuoi programmi!",
    "HeaderSupporterBenefit": "Un abbonamento sostenitore offre vantaggi aggiuntivi, come l'accesso ai plugin premium, i contenuti del canale internet, e altro ancora.",
    "HeaderLatestEpisodes": "Ultimi Episodi Aggiunti",
    "OptionNoTrailer": "No Trailer",
    "HeaderPersonTypes": "Tipo Persone:",
    "OptionNoThemeSong": "No Temi canzone",
    "TabSongs": "Canzoni",
    "OptionNoThemeVideo": "No tema video",
    "TabAlbums": "Albums",
    "LabelOneTimeDonationAmount": "Importo della donazione:",
    "TabArtists": "Artisti",
    "OptionActor": "Attore",
    "TabAlbumArtists": "Album Artisti",
    "OptionComposer": "Compositore",
    "TabMusicVideos": "Video Musicali",
    "OptionDirector": "Regista",
    "ButtonSort": "Ordina",
    "OptionGuestStar": "Guest star",
    "HeaderSortBy": "Ordina per:",
    "OptionProducer": "Produttore",
    "HeaderSortOrder": "Ordinato per:",
    "OptionWriter": "Scrittore",
    "OptionPlayed": "Visto",
    "LabelAirDays": "In onda da (gg):",
    "OptionUnplayed": "Non visto",
    "LabelAirTime": "In onda da:",
    "OptionAscending": "Ascendente",
    "HeaderMediaInfo": "Media Info",
    "OptionDescending": "Discentente",
    "HeaderPhotoInfo": "Foto info",
    "OptionRuntime": "Durata",
    "HeaderInstall": "Installa",
    "OptionReleaseDate": "Data di rilascio",
    "LabelSelectVersionToInstall": "Selezionare la versione da installare:",
    "OptionPlayCount": "Visto N\u00b0",
    "LinkSupporterMembership": "Ulteriori informazioni Supporter Membership",
    "OptionDatePlayed": "Visto il",
    "MessageSupporterPluginRequiresMembership": "Questo plugin richiede un abbonamento sostenitore attivo dopo la prova gratuita di 14 giorni.",
    "OptionDateAdded": "Aggiunto il",
    "MessagePremiumPluginRequiresMembership": "Questo plugin richiede un abbonamento sostenitore attivo al fine di acquistare dopo la prova gratuita di 14 giorni.",
    "OptionAlbumArtist": "Album Artista",
    "HeaderReviews": "Recensioni",
    "OptionArtist": "Artista",
    "HeaderDeveloperInfo": "Info sviluppatore",
    "OptionAlbum": "Album",
    "HeaderRevisionHistory": "Cronologia delle revisioni",
    "OptionTrackName": "Nome Brano",
    "ButtonViewWebsite": "Visualizza sito web",
    "OptionCommunityRating": "Voto del pubblico",
    "LabelRecurringDonationCanBeCancelledHelp": "Donazioni ricorrenti possono essere cancellati in qualsiasi momento dal tuo conto PayPal.",
    "OptionNameSort": "Nome",
    "HeaderXmlSettings": "Xml Settings",
    "OptionFolderSort": "Cartelle",
    "HeaderXmlDocumentAttributes": "Xml Document Attributes",
    "OptionBudget": "Budget",
    "HeaderXmlDocumentAttribute": "Xml Document Attribute",
    "OptionRevenue": "Recensione",
    "XmlDocumentAttributeListHelp": "Questi attributi vengono applicati all'elemento radice di ogni risposta XML.",
    "OptionPoster": "Locandina",
    "OptionSaveMetadataAsHidden": "Salvare i metadati e le immagini come file nascosti",
    "OptionBackdrop": "Sfondo",
    "LabelExtractChaptersDuringLibraryScan": "Estrarre immagini capitolo durante la scansione biblioteca",
    "OptionTimeline": "Anno",
    "LabelExtractChaptersDuringLibraryScanHelp": "Se abilitata, le immagini capitolo verranno estratti quando i video vengono importati durante la scansione della libreria. Se disabilitata verranno estratti durante le immagini dei capitoli programmati compito, permettendo la scansione biblioteca regolare per completare pi\u00f9 velocemente.",
    "OptionThumb": "Sfondo",
    "LabelConnectUserName": "Media Browser username\/email:",
    "OptionBanner": "Banner",
    "LabelConnectUserNameHelp": "Collegare questo utente a un account browser media per permettere un facile accesso sign-in da qualsiasi applicazione, senza dover conoscere l'indirizzo IP del server.",
    "OptionCriticRating": "Voto critica",
    "ButtonLearnMoreAboutMediaBrowserConnect": "Scopri di pi\u00f9 su Media Browser Connect",
    "OptionVideoBitrate": "Video Bitrate",
    "LabelExternalPlayers": "Player esterni:",
    "OptionResumable": "Interrotti",
    "LabelExternalPlayersHelp": "Pulsanti di visualizzazione di riprodurre contenuti in lettori esterni. Questo \u00e8 disponibile solo su dispositivi che supportano schemi URL, generalmente Android e iOS. Con i giocatori esterni vi \u00e8 generalmente alcun supporto per il controllo remoto o ripresa.",
    "HeaderSubtitleProfile": "Profilo sottotitolo",
    "ScheduledTasksHelp": "Fare clic su una voce per cambiare la pianificazione.",
    "ScheduledTasksTitle": "Operazioni Pianificate",
    "HeaderSubtitleProfiles": "Profili sottotitoli",
    "HeaderSubtitleProfilesHelp": "Profili sottotitoli descrivono i formati di sottotitoli supportati dal dispositivo.",
    "TabMyPlugins": "Plugins Installati",
    "LabelFormat": "Formato:",
    "TabCatalog": "Catalogo",
    "LabelMethod": "Metodo:",
    "PluginsTitle": "Plugins",
    "LabelDidlMode": "Modalit\u00e0 didl:",
    "HeaderAutomaticUpdates": "Aggiornamenti Automatici",
    "OptionCaptionInfoExSamsung": "CaptionInfoEx (Samsung)",
    "HeaderNowPlaying": "Riproducendo",
    "OptionResElement": "elemento res",
    "HeaderLatestAlbums": "Ultimi Albums Aggiunti",
    "OptionEmbedSubtitles": "Incorpora all'interno del contenitore",
    "HeaderLatestSongs": "Ultime Canzoni",
    "OptionExternallyDownloaded": "External download",
    "HeaderRecentlyPlayed": "Visti di recente",
    "OptionHlsSegmentedSubtitles": "Hls segmentato sottotitoli",
    "HeaderFrequentlyPlayed": "Visti di frequente",
    "DevBuildWarning": "La versione Dev Builds non \u00e8 testata e potrebbe bloccarsi o non rispondere correttamente",
    "LabelSubtitleFormatHelp": "Esempio: srt",
    "LabelVideoType": "Tipo video:",
    "ButtonLearnMore": "saperne di pi\u00f9",
    "OptionBluray": "Bluray",
    "TabPlayback": "Riproduzione",
    "OptionDvd": "Dvd",
    "HeaderTrailersAndExtras": "Trailers & Extras",
    "OptionIso": "Iso",
    "OptionFindTrailers": "Trova trailer da internet automaticamente",
    "Option3D": "3D",
    "HeaderLanguagePreferences": "Lingua preferita",
    "LabelFeatures": "Caratteristiche:",
    "TabCinemaMode": "Modalit\u00e0 Cinema",
    "LabelService": "Servizio:",
    "TitlePlayback": "Riproduzione",
    "LabelStatus": "Stato:",
    "LabelEnableCinemaModeFor": "Attiva modalit\u00e0 cinema per:",
    "LabelVersion": "Versione:",
    "CinemaModeConfigurationHelp": "Modalit\u00e0 Cinema porta l'esperienza del teatro direttamente nel tuo salotto con la possibilit\u00e0 di vedere trailer e intro personalizzati prima la caratteristica principale.",
    "LabelLastResult": "Ultimo risultato:",
    "OptionTrailersFromMyMovies": "Includi i trailer di film nella mia biblioteca",
    "OptionHasSubtitles": "Sottotitoli",
    "OptionUpcomingMoviesInTheaters": "Includi i trailer di film nuovi e imminenti",
    "OptionHasTrailer": "Trailer",
    "LabelLimitIntrosToUnwatchedContent": "Solo i trailer da contenuti non visti",
    "OptionHasThemeSong": "Tema Canzone",
    "LabelEnableIntroParentalControl": "Abilita controllo parentale intelligente",
    "OptionHasThemeVideo": "Tema video",
    "LabelEnableIntroParentalControlHelp": "Trailer: verr\u00e0 selezionata solo con un rating genitori uguale o inferiore al contenuto di essere osservato.",
    "TabMovies": "Film",
    "LabelTheseFeaturesRequireSupporterHelpAndTrailers": "Queste caratteristiche richiedono un abbonamento attivo sostenitore e l'installazione del plugin canale Trailer.",
    "TabStudios": "Studios",
    "OptionTrailersFromMyMoviesHelp": "Richiede l'installazione di trailer locali.",
    "TabTrailers": "Trailer",
    "LabelCustomIntrosPath": "Intro personalizzate percorso:",
    "LabelArtists": "Cantanti",
    "LabelCustomIntrosPathHelp": "Una cartella contenente i file video. Un video sar\u00e0 scelto a caso e riprodotto dopo i traler.",
    "LabelArtistsHelp": "Separazione multipla utilizzando ;",
    "ValueSpecialEpisodeName": "Speciali - {0}",
    "HeaderLatestMovies": "Ultimi Film Aggiunti",
    "LabelSelectInternetTrailersForCinemaMode": "Internet trailers:",
    "HeaderLatestTrailers": "Ultimi Trailers Aggiunti",
    "OptionUpcomingDvdMovies": "includi trailer nuovi e imminenti film su Dvd & Blu-ray",
    "OptionHasSpecialFeatures": "Caratteristiche speciali",
    "OptionUpcomingStreamingMovies": "Includi trailer nuovi e imminenti film su Netflix",
    "OptionImdbRating": "Voto IMDB",
    "LabelDisplayTrailersWithinMovieSuggestions": "Visualizzare i rimorchi all'interno di suggerimenti di film",
    "OptionParentalRating": "Voto Genitori",
    "LabelDisplayTrailersWithinMovieSuggestionsHelp": "Richiede l'installazione del canale Trailer.",
    "OptionPremiereDate": "Premiere Date",
    "CinemaModeConfigurationHelp2": "Individual users will have the ability to disable cinema mode within their own preferences.",
    "TabBasic": "Base",
    "LabelEnableCinemaMode": "Enable cinema mode",
    "TabAdvanced": "Avanzato",
    "HeaderCinemaMode": "Cinema Mode",
    "HeaderStatus": "Stato",
    "OptionContinuing": "In corso",
    "OptionEnded": "Finito",
    "HeaderAirDays": "In onda da:",
    "OptionSunday": "Domenica",
    "OptionMonday": "Lunedi",
    "OptionTuesday": "Martedi",
    "OptionWednesday": "Mercoledi",
    "OptionThursday": "Giovedi",
    "OptionFriday": "Venerdi",
    "OptionSaturday": "Sabato",
    "HeaderManagement": "Gestione :",
    "LabelManagement": "Management:",
    "OptionMissingImdbId": "IMDB id mancante",
    "OptionMissingTvdbId": "TheTVDB Id mancante",
    "OptionMissingOverview": "Trama mancante",
    "OptionFileMetadataYearMismatch": "File\/Metadata anni errati",
    "TabGeneral": "Generale",
    "TitleSupport": "Supporto",
    "TabLog": "Eventi",
    "TabAbout": "Info",
    "TabSupporterKey": "Chiave finanziatore",
    "TabBecomeSupporter": "Diventa finanziatore",
    "MediaBrowserHasCommunity": "Media Browser sta cercando persone che contribuiscono",
    "CheckoutKnowledgeBase": "Hai un problema?",
    "SearchKnowledgeBase": "Cerca sulla guida online",
    "VisitTheCommunity": "Visita la nostra comunit\u00e0",
    "VisitMediaBrowserWebsite": "Visita il sito di Media Browser",
    "VisitMediaBrowserWebsiteLong": "Vuoi saperne di pi\u00f9 sulle ultime novit\u00e0?",
    "OptionHideUser": "Nascondi questo utente dalla schermata di Accesso",
    "OptionDisableUser": "Disabilita utente",
    "OptionDisableUserHelp": "Se disabilitato, il server non sar\u00e0 disponibile per questo utente.La connessione corrente verr\u00e0 TERMINATA",
    "HeaderAdvancedControl": "Controlli avanzati",
    "LabelName": "Nome:",
    "OptionAllowUserToManageServer": "Consenti a questo utente di accedere alla configurazione del SERVER",
    "HeaderFeatureAccess": "Caratteristiche di accesso",
    "OptionAllowMediaPlayback": "Consenti la riproduzione",
    "OptionAllowBrowsingLiveTv": "Consenti la navigazione sulla Tv indiretta",
    "OptionAllowDeleteLibraryContent": "Consenti a questo utente di eliminare il contenuti della libreria",
    "OptionAllowManageLiveTv": "Consenti la modifica delle operazioni pianificate della TV",
    "OptionAllowRemoteControlOthers": "Consenti a questo utente di controllare in remoto altri utenti",
    "OptionMissingTmdbId": "Tmdb Id mancante",
    "OptionIsHD": "HD",
    "OptionIsSD": "SD",
    "OptionMetascore": "Punteggio",
    "ButtonSelect": "Seleziona",
    "ButtonGroupVersions": "Versione Gruppo",
    "ButtonAddToCollection": "Aggiungi alla Collezione",
    "PismoMessage": "Dona per avere una licenza di Pismo",
    "TangibleSoftwareMessage": "Utilizzando materiali Solutions convertitori Java \/ C # attraverso una licenza dopo aver donato.",
    "HeaderCredits": "Crediti",
    "PleaseSupportOtherProduces": "Per favore supporta gli altri prodotti 'GRATIS' che MB utilizza",
    "VersionNumber": "Versione {0}",
    "TabPaths": "Percorso",
    "TabServer": "Server",
    "TabTranscoding": "Trascodifica",
    "TitleAdvanced": "Avanzato",
    "LabelAutomaticUpdateLevel": "Livello Aggiornamenti Automatici",
    "OptionRelease": "Versione Ufficiale",
    "OptionBeta": "Beta",
    "OptionDev": "Dev (instabile)",
    "LabelAllowServerAutoRestart": "Consenti al server di Riavviarsi automaticamente per applicare gli aggiornamenti",
    "LabelAllowServerAutoRestartHelp": "Il server si Riavvier\u00e0 solamente quando quando nessun utente \u00e8 collegato",
    "LabelEnableDebugLogging": "Abilit\u00e0 eventi di DEBUG",
    "LabelRunServerAtStartup": "Esegui il server all'avvio di windows",
    "LabelRunServerAtStartupHelp": "Verr\u00e0 avviata l'icona della barra all'avvio di Windows. Per avviare il servizio di Windows, deselezionare questa ed eseguire il servizio dal pannello di controllo di Windows. Si prega di notare che non \u00e8 possibile eseguire entrambi allo stesso tempo, quindi sar\u00e0 necessario uscire l'icona del vassoio prima di avviare il servizio.",
    "ButtonSelectDirectory": "Seleziona cartella",
    "LabelCustomPaths": "Specifica un percorso personalizzato.Lasciare vuoto per usare quello predefinito",
    "LabelCachePath": "Percorso Cache:",
    "LabelCachePathHelp": "Questa cartella contiene la cache come files e immagini .",
    "LabelImagesByNamePath": "Percorso immagini per nome:",
    "LabelImagesByNamePathHelp": "Specificare un percorso personalizzato per le immagini scaricato attore, artista, genere e in studio.",
    "LabelMetadataPath": "Percorso dei file METADATI:",
    "LabelMetadataPathHelp": "Specificare un percorso personalizzato per opere d'arte scaricato e metadati, se non il salvataggio in cartelle multimediali.",
    "LabelTranscodingTempPath": "Cartella temporanea per la trascodifica:",
    "LabelTranscodingTempPathHelp": "Questa cartella contiene i file di lavoro utilizzati dal transcoder. Specificare un percorso personalizzato, oppure lasciare vuoto per utilizzare l'impostazione predefinita all'interno della cartella dei dati del server.",
    "TabBasics": "Base",
    "TabTV": "SerieTv",
    "TabGames": "Giochi",
    "TabMusic": "Musica",
    "TabOthers": "Altri",
    "HeaderExtractChapterImagesFor": "Estrai le immagini dei capitoli per:",
    "OptionMovies": "Film",
    "OptionEpisodes": "Episodi",
    "OptionOtherVideos": "Altri Video",
    "TitleMetadata": "Metadati",
    "LabelAutomaticUpdatesFanart": "Abilita gli aggiornamenti automatici per FanArt.Tv",
    "LabelAutomaticUpdatesTmdb": "Abilita gli aggiornamenti automatici per TheMovieDB.org",
    "LabelAutomaticUpdatesTvdb": "Abilita gli aggiornamenti automatici per TheTVDB.com",
    "LabelAutomaticUpdatesFanartHelp": "Se abilitato le nuove immagini verranno scaricate automaticamente da fanart.tv.Le immagini esistenti non verranno sovrascritte.",
    "LabelAutomaticUpdatesTmdbHelp": "Se abilitato le nuove immagini verranno scaricate automaticamente da ThemovieDb.org.Le immagini esistenti non verranno sovrascritte.",
    "LabelAutomaticUpdatesTvdbHelp": "Se abilitato le nuove immagini verranno scaricate automaticamente da TheTvDB.com.Le immagini esistenti non verranno sovrascritte.",
    "ExtractChapterImagesHelp": "Estrazione di immagini capitoli permetter\u00e0 ai clienti di visualizzare i menu di selezione delle scene grafiche. Il processo pu\u00f2 essere lento, cpu-intensive e pu\u00f2 richiedere diversi gigabyte di spazio. Funziona quando vengono scoperti i video, e anche come un compito serale in programma a 04:00. Il programma \u00e8 configurabile nella zona di operazioni pianificate. Non \u00e8 consigliabile eseguire questa operazione durante le ore di picco.",
    "LabelMetadataDownloadLanguage": "Lingua preferita per il download:",
    "ButtonAutoScroll": "Auto-scroll",
    "LabelImageSavingConvention": "Convenzione per il salvataggio di immagini:",
    "LabelImageSavingConventionHelp": "Media Browser riconosce le immagini dalla maggior parte delle principali applicazioni multimediali. Scegliere la convenzione piu adatta a te.",
    "OptionImageSavingCompatible": "Compatibile- Media Browser\/kodi\/Plex",
    "OptionImageSavingStandard": "Standard - MB2",
    "ButtonSignIn": "Accedi",
    "TitleSignIn": "Accedi",
    "HeaderPleaseSignIn": "Per favore accedi",
    "LabelUser": "Utente:",
    "LabelPassword": "Password:",
    "ButtonManualLogin": "Accesso Manuale",
    "PasswordLocalhostMessage": "Le password non sono richieste quando l'accesso e fatto da questo pc.",
    "TabGuide": "Guida",
    "TabChannels": "Canali",
    "TabCollections": "Collezioni",
    "HeaderChannels": "Canali",
    "TabRecordings": "Registrazioni",
    "TabScheduled": "Pianificato",
    "TabSeries": "Serie TV",
    "TabFavorites": "Preferiti",
    "TabMyLibrary": "Mia Libreria",
    "ButtonCancelRecording": "Annulla la registrazione",
    "HeaderPrePostPadding": "Pre\/Post Registrazione",
    "LabelPrePaddingMinutes": "Pre registrazione minuti",
    "OptionPrePaddingRequired": "Attiva pre registrazione",
    "LabelPostPaddingMinutes": "Minuti post registrazione",
    "OptionPostPaddingRequired": "Attiva post registrazione",
    "HeaderWhatsOnTV": "Cosa c'\u00e8",
    "HeaderUpcomingTV": "In onda a breve",
    "TabStatus": "Stato",
    "TabSettings": "Impostazioni",
    "ButtonRefreshGuideData": "Aggiorna la guida",
    "ButtonRefresh": "Aggiorna",
    "ButtonAdvancedRefresh": "Aggiornamento (avanzato)",
    "OptionPriority": "Priorit\u00e0",
    "OptionRecordOnAllChannels": "Registra su tutti i canali",
    "OptionRecordAnytime": "Registra a qualsiasi ora",
    "OptionRecordOnlyNewEpisodes": "Registra solo i nuovi episodi",
    "HeaderDays": "Giorni",
    "HeaderActiveRecordings": "Registrazioni Attive",
    "HeaderLatestRecordings": "Ultime registrazioni",
    "HeaderAllRecordings": "Tutte le registrazioni",
    "ButtonPlay": "Riproduci",
    "ButtonEdit": "Modifica",
    "ButtonRecord": "Registra",
    "ButtonDelete": "Elimina",
    "ButtonRemove": "Rimuovi",
    "OptionRecordSeries": "Registra Serie",
    "HeaderDetails": "Dettagli",
    "TitleLiveTV": "Tv indiretta",
    "LabelNumberOfGuideDays": "Numeri giorni dati guida",
    "LabelNumberOfGuideDaysHelp": "Scaricando pi\u00f9 giorni si avr\u00e0 la possibilit\u00e0 di schedulare in anticipo pi\u00f9 programmi.'Auto': MB sceglier\u00e0 automaticamente in base al numero di canali.",
    "LabelActiveService": "Servizio attivo:",
    "LabelActiveServiceHelp": "Possono essere installati pi\u00f9 plugins Tv ma solo uno alla volta pu\u00f2 essere attivato",
    "OptionAutomatic": "Automatico",
    "LiveTvPluginRequired": "\u00e8 richiesto il servizio LIVE TV per continuare.",
    "LiveTvPluginRequiredHelp": "Installa un servizio disponibile, come Next Pvr or ServerWMC.",
    "LabelCustomizeOptionsPerMediaType": "Personalizza per il tipo di supporto:",
    "OptionDownloadThumbImage": "Foto",
    "OptionDownloadMenuImage": "Men\u00f9",
    "OptionDownloadLogoImage": "Logo",
    "OptionDownloadBoxImage": "Box",
    "OptionDownloadDiscImage": "Disco",
    "OptionDownloadBannerImage": "Banner",
    "OptionDownloadBackImage": "Indietro",
    "OptionDownloadArtImage": "Art",
    "OptionDownloadPrimaryImage": "Locandina",
    "HeaderFetchImages": "Identifica Immagini:",
    "HeaderImageSettings": "Impostazioni Immagini",
    "TabOther": "Altro",
    "LabelMaxBackdropsPerItem": "Massimo numero di sfondi per oggetto.",
    "LabelMaxScreenshotsPerItem": "Massimo numero di foto per oggetto:",
    "LabelMinBackdropDownloadWidth": "Massima larghezza sfondo:",
    "LabelMinScreenshotDownloadWidth": "Minima larghezza foto:",
    "ButtonAddScheduledTaskTrigger": "Aggiungi operazione:",
    "HeaderAddScheduledTaskTrigger": "Aggiungi operazione:",
    "ButtonAdd": "Aggiungi",
    "LabelTriggerType": "Tipo Evento:",
    "OptionDaily": "Giornal.",
    "OptionWeekly": "Settimanale",
    "OptionOnInterval": "Su intervalla",
    "OptionOnAppStartup": "All'avvio",
    "OptionAfterSystemEvent": "Dopo un vento di sistema",
    "LabelDay": "Giorno:",
    "LabelTime": "Ora:",
    "LabelEvent": "Evento:",
    "OptionWakeFromSleep": "Risveglio :",
    "LabelEveryXMinutes": "Tutti:",
    "HeaderTvTuners": "Schede Tv",
    "HeaderGallery": "Galleria",
    "HeaderLatestGames": "Ultimi giochi",
    "HeaderRecentlyPlayedGames": "Ultimi giochi recenti",
    "TabGameSystems": "Giochi di sistema",
    "TitleMediaLibrary": "Libreria",
    "TabFolders": "Cartelle",
    "TabPathSubstitution": "Percorso da sostiuire",
    "LabelSeasonZeroDisplayName": "Stagione 0 Nome:",
    "LabelEnableRealtimeMonitor": "Abilita monitoraggio in tempo reale",
    "LabelEnableRealtimeMonitorHelp": "Le modifiche saranno applicate immediatamente, sui file system supportati.",
    "ButtonScanLibrary": "Scansione libreria",
    "HeaderNumberOfPlayers": "Giocatori:",
    "OptionAnyNumberOfPlayers": "Qualsiasi:",
    "Option1Player": "1+",
    "Option2Player": "2+",
    "Option3Player": "3+",
    "Option4Player": "4+",
    "HeaderMediaFolders": "Cartelle dei media",
    "HeaderThemeVideos": "Tema dei video",
    "HeaderThemeSongs": "Tema Canzoni",
    "HeaderScenes": "Scene",
    "HeaderAwardsAndReviews": "Premi e Recensioni",
    "HeaderSoundtracks": "Colonne sonore",
    "HeaderMusicVideos": "video musicali",
    "HeaderSpecialFeatures": "Caratteristiche speciali",
    "HeaderCastCrew": "Cast & Crew",
    "HeaderAdditionalParts": "Parti addizionali",
    "ButtonSplitVersionsApart": "Split Versions Apart",
    "ButtonPlayTrailer": "Trailer",
    "LabelMissing": "mancante",
    "LabelOffline": "Spento",
    "PathSubstitutionHelp": "il percorso 'sostituzioni' vengono utilizzati per mappare un percorso sul server per un percorso che i client sono in grado di accedere. Consentendo ai clienti l'accesso diretto ai media sul server possono essere in grado di giocare direttamente attraverso la rete ed evitare di utilizzare le risorse del server per lo streaming e transcodificare tra di loro.",
    "HeaderFrom": "Da",
    "HeaderTo": "A",
    "LabelFrom": "Da:",
    "LabelFromHelp": "Esempio: D\\Films (sul server)",
    "LabelTo": "A:",
    "LabelToHelp": "Esempio: \\ \\ MyServer \\ Films (Percorso a cui i client possono accedere)",
    "ButtonAddPathSubstitution": "Aggiungi sostituzione",
    "OptionSpecialEpisode": "Speciali",
    "OptionMissingEpisode": "Episodi mancanti",
    "OptionUnairedEpisode": "Episodi mai andati in onda",
    "OptionEpisodeSortName": "Ordina episodi per nome",
    "OptionSeriesSortName": "Nome Serie",
    "OptionTvdbRating": "Voto Tvdb",
    "HeaderTranscodingQualityPreference": "Preferenze qualit\u00e0 trascodifica:",
    "OptionAutomaticTranscodingHelp": "Il server decider\u00e0 qualit\u00e0 e velocit\u00e0",
    "OptionHighSpeedTranscodingHelp": "Bassa qualit\u00e0, ma pi\u00f9 velocit\u00e0 nella codifica",
    "OptionHighQualityTranscodingHelp": "Alta qualit\u00e0, ma pi\u00f9 lentezza nella codifica",
    "OptionMaxQualityTranscodingHelp": "Migliore qualit\u00e0 con la codifica pi\u00f9 lenta e elevato utilizzo della CPU",
    "OptionHighSpeedTranscoding": "Maggiore velocit\u00e0",
    "OptionHighQualityTranscoding": "Maggiore qualit\u00e0",
    "OptionMaxQualityTranscoding": "Massima Qualit\u00e0",
    "OptionEnableDebugTranscodingLogging": "Abilita la registrazione transcodifica di debug",
    "OptionEnableDebugTranscodingLoggingHelp": "Questo creer\u00e0 file di log molto grandi ed \u00e8 consigliato solo se necessario per la risoluzione dei problemi.",
    "OptionUpscaling": "Consenti ai clienti di richiedere il video scalato",
    "OptionUpscalingHelp": "In alcuni casi, questo si tradurr\u00e0 in una migliore qualit\u00e0 video, ma aumenter\u00e0 l'utilizzo della CPU.",
    "EditCollectionItemsHelp": "Aggiungi o rimuovi films,serie,albums,libri o giochi e se vuoi raggruppa in collezioni",
    "HeaderAddTitles": "Aggiungi Titolo",
    "LabelEnableDlnaPlayTo": "Abilita DLNA su",
    "LabelEnableDlnaPlayToHelp": "Media Browser pu\u00f2 ricercare dispositivi sulla tua rete e abilitare il controllo remoto degli stessi.",
    "LabelEnableDlnaDebugLogging": "Abilita il debug del DLNA",
    "LabelEnableDlnaDebugLoggingHelp": "Questo creer\u00e0 file di log di notevoli dimensioni e deve essere abilitato solo per risolvere eventuali problemi",
    "LabelEnableDlnaClientDiscoveryInterval": "Ricerca nuovi dispositivi:(Ogni x secondi)",
    "LabelEnableDlnaClientDiscoveryIntervalHelp": "Determina la durata in secondi dell'intervallo tra  la ricerca< SSDP",
    "HeaderCustomDlnaProfiles": "Profili personalizzati",
    "HeaderSystemDlnaProfiles": "Profili di sistema",
    "CustomDlnaProfilesHelp": "Crea un profilo personalizzato per un nuovo dispositivo o sovrascrivi quello di sistema",
    "SystemDlnaProfilesHelp": "I profili di sistema sono in solo lettura.crea un profilo personalizzato per lo stesso dispositivo.",
    "TitleDashboard": "Dashboard",
    "TabHome": "Home",
    "TabInfo": "Info",
    "HeaderLinks": "Links",
    "HeaderSystemPaths": "Percorsi di sistema",
    "LinkCommunity": "Comunit\u00e0",
    "LinkGithub": "Github",
    "LinkApiDocumentation": "Documentazione Api",
    "LabelFriendlyServerName": "Nome condiviso del server:",
    "LabelFriendlyServerNameHelp": "Questo nome \u00e8 usato per identificare il server sulla rete.Se lasciato vuoto verra usato il nome del pc",
    "LabelPreferredDisplayLanguage": "Lingua preferita",
    "LabelPreferredDisplayLanguageHelp": "La traduzione nella tua lingua non \u00e8 ancora completa.Scusa.",
    "LabelReadHowYouCanContribute": "Leggi come puoi contribuire",
    "HeaderNewCollection": "Nuova collezione",
    "HeaderAddToCollection": "Aggiungi alla Collezione",
    "ButtonSubmit": "Invia",
    "NewCollectionNameExample": "Esempio:Collezione Star wars",
    "OptionSearchForInternetMetadata": "Cerca su internet le immagini e i metadati",
    "ButtonCreate": "Crea",
    "LabelHttpServerPortNumber": "Porta del server HTTP Numero:",
    "LabelWebSocketPortNumber": "Porta webSocket numero:",
    "LabelEnableAutomaticPortHelp": "UPnP puo automaticamente autoconfigurare il Router per l'accesso remoto.Non funziona su tutti i modelli!",
    "LabelExternalDDNS": "DDNS Esterno:",
    "LabelExternalDDNSHelp": "Se tu ha un DNS dinamico inseriscilo qui.Media browser lo utilizzera per le connessioni remote.",
    "TabResume": "Riprendi",
    "TabWeather": "Tempo",
    "TitleAppSettings": "Impostazioni delle app",
    "LabelMinResumePercentage": "% minima per il riprendi",
    "LabelMaxResumePercentage": "% massima per il riprendi",
    "LabelMinResumeDuration": "Durata minima per il riprendi (secondi)",
    "LabelMinResumePercentageHelp": "I film Sono considerati non visti se fermati prima di questo tempo",
    "LabelMaxResumePercentageHelp": "I film sono considerati visti se fermati dopo questo tempo",
    "LabelMinResumeDurationHelp": "I film pi\u00f9 corti non saranno riprendibili",
    "TitleAutoOrganize": "Organizza Automaticamente",
    "TabActivityLog": "Attivit\u00e0 Eventi",
    "HeaderName": "Nome",
    "HeaderDate": "Data",
    "HeaderSource": "Sorgente",
    "HeaderDestination": "Destinazione",
    "HeaderProgram": "Programma",
    "HeaderClients": "Dispositivi",
    "LabelCompleted": "Completato",
    "LabelFailed": "Fallito",
    "LabelSkipped": "Saltato",
    "HeaderEpisodeOrganization": "Organizzazione Episodi",
    "LabelSeries": "Serie:",
    "LabelSeasonNumber": "Numero Stagione:",
    "LabelEpisodeNumber": "Numero Episodio :",
    "LabelEndingEpisodeNumber": "Ultimo Episodio Numero:",
    "LabelEndingEpisodeNumberHelp": "\u00e8 richiesto solo se ci sono pi\u00f9 file per espisodio",
    "HeaderSupportTheTeam": "Team di supporto di Media Browser",
    "LabelSupportAmount": "Ammontare (Dollari)",
    "HeaderSupportTheTeamHelp": "Aiutaci a continuare nello sviluppo di questo progetto tramite donazione. una porzione delle donazioni verranno impiegate per lo sviluppo di Plugins gratuiti.",
    "ButtonEnterSupporterKey": "Inserisci il numero di registrazione",
    "DonationNextStep": "Pe favore rientra ed inserisci la chiave di registrazione che hai ricevuto tramite mail.",
    "AutoOrganizeHelp": "Organizzazione automatica:Monitorizza le cartelle dei files scaricati e li spostera automaticamente nelle tue cartelle dei media.",
    "AutoOrganizeTvHelp": "L'organizzazione della TV aggiunger\u00e0 solo episodi nuovi. Non verranno create nuove cartelle delle serie.",
    "OptionEnableEpisodeOrganization": "Abilita l'organizzazione dei nuovi episodi",
    "LabelWatchFolder": "Monitorizza cartella:",
    "LabelWatchFolderHelp": "Il server cercher\u00e0 in questa cartella durante l'operazione pianificata relativa all 'Organizzazione dei nuovi file multimediali",
    "ButtonViewScheduledTasks": "Visualizza le operazioni pianificate",
    "LabelMinFileSizeForOrganize": "Dimensioni minime file (MB):",
    "LabelMinFileSizeForOrganizeHelp": "I file sotto questa dimensione verranno ignorati.",
    "LabelSeasonFolderPattern": "Modello della cartella Stagione:",
    "LabelSeasonZeroFolderName": "Modello della cartella Stagione ZERO:",
    "HeaderEpisodeFilePattern": "Modello del file Episodio:",
    "LabelEpisodePattern": "Modello Episodio:",
    "LabelMultiEpisodePattern": "Modello dei multi-file episodio:",
    "HeaderSupportedPatterns": "Modelli supportati",
    "HeaderTerm": "Termine",
    "HeaderPattern": "Modello",
    "HeaderResult": "Resultato",
    "LabelDeleteEmptyFolders": "Elimina le cartelle vuote dopo l'organizzazione automatica",
    "LabelDeleteEmptyFoldersHelp": "Attivare questa opzione per mantenere la directory di download pulita.",
    "LabelDeleteLeftOverFiles": "Elimina sopra i file con le seguenti estensioni:",
    "LabelDeleteLeftOverFilesHelp": "Separare con:. Per esempio:.. Nfo; txt",
    "OptionOverwriteExistingEpisodes": "Sovrascrivere episodi esistenti",
    "LabelTransferMethod": "metodo di trasferimento",
    "OptionCopy": "Copia",
    "OptionMove": "Sposta",
    "LabelTransferMethodHelp": "Copiare o spostare i file dalla cartella da monitorizzare",
    "HeaderLatestNews": "Ultime Novit\u00e0",
    "HeaderHelpImproveMediaBrowser": "Contribuisci a migliorare il Media Browser",
    "HeaderRunningTasks": "Operazione in corso",
    "HeaderActiveDevices": "Dispositivi Connessi",
    "HeaderPendingInstallations": "installazioni in coda",
    "HeaerServerInformation": "Informazioni del server",
    "ButtonRestartNow": "Riavvia Adesso",
    "ButtonRestart": "Riavvia",
    "ButtonShutdown": "Arresta Server",
    "ButtonUpdateNow": "Aggiorna Adesso",
    "PleaseUpdateManually": "Per favore Arresta il server ed aggiorna manualmente",
    "NewServerVersionAvailable": "una nuova versione di Media browser \u00e8 disponibile!!!",
    "ServerUpToDate": "Media Browser \u00e8 aggiornato.",
    "ErrorConnectingToMediaBrowserRepository": "Si \u00e8 verificato un errore durante la connessione al repository Media Browser remoto.",
    "LabelComponentsUpdated": "I seguenti componenti sono stati installati o aggiornati:",
    "MessagePleaseRestartServerToFinishUpdating": "Si prega di riavviare il server per completare l'applicazione degli aggiornamenti.",
    "LabelDownMixAudioScale": "Audio Boost Mix Scala :",
    "LabelDownMixAudioScaleHelp": "Audio Mix: Valore originale 1",
    "ButtonLinkKeys": "Lnks Chiavi:",
    "LabelOldSupporterKey": "Vecchie Chiavi dl donatore",
    "LabelNewSupporterKey": "Nuova Chiave del donatore:",
    "HeaderMultipleKeyLinking": "Links Chiave Multiple",
    "MultipleKeyLinkingHelp": "Se si dispone di pi\u00f9 di una chiave 'donatore', utilizzare questo modulo per collegare le registrazioni della vecchia chiave con la nuova.",
    "LabelCurrentEmailAddress": "Indirizzo mail",
    "LabelCurrentEmailAddressHelp": "L'indirizzo email attuale a cui la nuova chiave \u00e8 stata inviata.",
    "HeaderForgotKey": "Chiave dimenticata",
    "LabelEmailAddress": "Indirizzo email",
    "LabelSupporterEmailAddress": "La mail verr\u00e0 utilizzata per acquistare la chiave",
    "ButtonRetrieveKey": "Ottieni chiave",
    "LabelSupporterKey": "Chiave ( incollala dalla mail ricevuta)",
    "LabelSupporterKeyHelp": "Inserisci la chiave per avere nuovi benefit che la comunit\u00e0 di Media Browser ha sviluppato per te",
    "MessageInvalidKey": "Chiave MB3 mancante o invalida.",
    "ErrorMessageInvalidKey": "Per qualsiasi contenuto premium devi essere registrato. \u00e8 necessario anche essere un browser Supporter multimediale. Si prega di donare e sostenere il continuo sviluppo del prodotto di base. Grazie.",
    "HeaderDisplaySettings": "Configurazione Monitor",
    "TabPlayTo": "Riproduci su",
    "LabelEnableDlnaServer": "Abilita server Dlna",
    "LabelEnableDlnaServerHelp": "Abilita i dispositivi UPnP",
    "LabelEnableBlastAliveMessages": "Blast alive messages",
    "LabelEnableBlastAliveMessagesHelp": "Attivare questa opzione se il server non viene rilevato in modo affidabile da altri dispositivi UPnP in rete.",
    "LabelBlastMessageInterval": "Intervallo messaggi di (secondi)",
    "LabelBlastMessageIntervalHelp": "Determina la durata in secondi tra i messaggi in vita del server.",
    "LabelDefaultUser": "Utente di Default:",
    "LabelDefaultUserHelp": "Determina quale libreria utente deve essere visualizzato sui dispositivi collegati. Questo pu\u00f2 essere disattivata tramite un profilo di dispositivo.",
    "TitleDlna": "DLNA",
    "TitleChannels": "Canali",
    "HeaderServerSettings": "Impostazioni server",
    "LabelWeatherDisplayLocation": "Localit\u00e0 previsione",
    "LabelWeatherDisplayLocationHelp": "Citt\u00e0,Stato",
    "LabelWeatherDisplayUnit": "Unita di Misura",
    "OptionCelsius": "Celsius",
    "OptionFahrenheit": "Fahrenheit",
    "HeaderRequireManualLogin": "Richiedi l'inserimento manuale utente per:",
    "HeaderRequireManualLoginHelp": "Quando i client disabilitati possono presentare una schermata di login con una selezione visuale di utenti.",
    "OptionOtherApps": "Altre apps",
    "OptionMobileApps": "Mobile apps",
    "HeaderNotificationList": "Fare clic su una notifica per configurare \u00e8 l'invio di opzioni.",
    "NotificationOptionApplicationUpdateAvailable": "Aggiornamento dell'applicazione disponibile",
    "NotificationOptionApplicationUpdateInstalled": "Aggiornamento dell'applicazione installata",
    "NotificationOptionPluginUpdateInstalled": "Aggiornamento del plugin installato",
    "NotificationOptionPluginInstalled": "plugin installato",
    "NotificationOptionPluginUninstalled": "Plugin disinstallato",
    "NotificationOptionVideoPlayback": "La riproduzione video \u00e8 iniziato",
    "NotificationOptionAudioPlayback": "Riproduzione audio iniziato",
    "NotificationOptionGamePlayback": "La riproduzione di gioco \u00e8 parita",
    "NotificationOptionVideoPlaybackStopped": "Video Fermato",
    "NotificationOptionAudioPlaybackStopped": "Audio Fermato",
    "NotificationOptionGamePlaybackStopped": "Gioco Fermato",
    "NotificationOptionTaskFailed": "Fallimento operazione pianificata",
    "NotificationOptionInstallationFailed": "errore di installazione",
    "NotificationOptionNewLibraryContent": "Nuovo contenuto aggiunto",
    "NotificationOptionNewLibraryContentMultiple": "Nuovi contenuti aggiunti",
    "SendNotificationHelp": "Per impostazione predefinita, le notifiche vengono consegnate al cruscotto della Posta in arrivo . Sfoglia il catalogo plugin da installare opzioni di notifica aggiuntive.",
    "NotificationOptionServerRestartRequired": "Riavvio del server necessaria",
    "LabelNotificationEnabled": "Abilita questa notifica",
    "LabelMonitorUsers": "Monitorare l'attivit\u00e0 da:",
    "LabelSendNotificationToUsers": "Spedisci notifiche a:",
    "LabelUseNotificationServices": "Utilizzare i seguenti servizi:",
    "CategoryUser": "Utente",
    "CategorySystem": "Sistema",
    "CategoryApplication": "Applicazione",
    "CategoryPlugin": "Plugin",
    "LabelMessageTitle": "Titolo messaggio:",
    "LabelAvailableTokens": "Gettoni disponibili:",
    "AdditionalNotificationServices": "Sfoglia il catalogo plugin per installare i servizi di notifica aggiuntivi.",
    "OptionAllUsers": "Tutti gli utenti",
    "OptionAdminUsers": "Administrators",
    "OptionCustomUsers": "Custom",
    "ButtonArrowUp": "Su",
    "ButtonArrowDown": "Gi\u00f9",
    "ButtonArrowLeft": "Sinistra",
    "ButtonArrowRight": "Destra",
    "ButtonBack": "Indietro",
    "ButtonInfo": "Info",
    "ButtonOsd": "Su Schermo",
    "ButtonPageUp": "Pagina Su",
    "ButtonPageDown": "Pagina Gi\u00f9",
    "PageAbbreviation": "PG",
    "ButtonHome": "Home",
    "ButtonSearch": "Cerca",
    "ButtonSettings": "Impostazioni",
    "ButtonTakeScreenshot": "Cattura schermata",
    "ButtonLetterUp": "Lettera Su",
    "ButtonLetterDown": "Lettera Gi\u00f9",
    "PageButtonAbbreviation": "PG",
    "LetterButtonAbbreviation": "e",
    "TabNowPlaying": "In esecuzione",
    "TabNavigation": "Navigazione",
    "TabControls": "Controlli",
    "ButtonFullscreen": "Tutto Schermo",
    "ButtonScenes": "Scene",
    "ButtonSubtitles": "Sottotitoli",
    "ButtonAudioTracks": "Tracce audio",
    "ButtonPreviousTrack": "Traccia Precedente",
    "ButtonNextTrack": "Prossima Traccia",
    "ButtonStop": "Stop",
    "ButtonPause": "Pausa",
    "ButtonNext": "Prossimo",
    "ButtonPrevious": "Precedente",
    "LabelGroupMoviesIntoCollections": "Raggruppa i film nelle collection",
    "LabelGroupMoviesIntoCollectionsHelp": "Quando si visualizzano le liste di film,i film appartenenti ad una collezione saranno visualizzati come un elemento raggruppato.",
    "NotificationOptionPluginError": "Plugin fallito",
    "ButtonVolumeUp": "Aumenta Volume",
    "ButtonVolumeDown": "Diminuisci volume",
    "ButtonMute": "Muto",
    "HeaderLatestMedia": "Ultimi Media",
    "OptionSpecialFeatures": "caratteristiche Speciali",
    "HeaderCollections": "Collezioni",
    "LabelProfileCodecsHelp": "Separati da virgola. Questo pu\u00f2 essere lasciato vuoto da applicare a tutti i codec.",
    "LabelProfileContainersHelp": "Separati da virgola. Questo pu\u00f2 essere lasciato vuoto da applicare a tutti i contenitori.",
    "HeaderResponseProfile": "Risposta Profilo",
    "LabelType": "Tipo:",
    "LabelPersonRole": "Ruolo:",
    "LabelPersonRoleHelp": "Ruolo \u00e8 generalmente applicabile solo agli attori.",
    "LabelProfileContainer": "Contenitore:",
    "LabelProfileVideoCodecs": "Video codecs:",
    "LabelProfileAudioCodecs": "Audio codecs:",
    "LabelProfileCodecs": "Codecs:",
    "HeaderDirectPlayProfile": "Direct Play profilo",
    "HeaderTranscodingProfile": "transcodifica profilo",
    "HeaderCodecProfile": "Codec Profilo",
    "HeaderCodecProfileHelp": "Profili Codec indicano i limiti di un dispositivo durante la riproduzione di codec specifici. Se una limitazione si applica poi saranno trascodificati media, anche se il codec \u00e8 configurato per riproduzione diretta.",
    "HeaderContainerProfile": "Profilo Contenitore",
    "HeaderContainerProfileHelp": "Container profiles indicate the limitations of a device when playing specific formats. If a limitation applies then the media will be transcoded, even if the format is configured for direct play.",
    "OptionProfileVideo": "Video",
    "OptionProfileAudio": "Audio",
    "OptionProfileVideoAudio": "Video Audio",
    "OptionProfilePhoto": "Foto",
    "LabelUserLibrary": "Libreria utente:",
    "LabelUserLibraryHelp": "Selezionare quale libreria utente da visualizzare sul dispositivo. Lasciare vuoto per ereditare l'impostazione predefinita.",
    "OptionPlainStorageFolders": "Visualizzare tutte le cartelle come cartelle di archiviazione pianura",
    "OptionPlainStorageFoldersHelp": "Se abilitato, tutte le cartelle sono rappresentati in didl come \"object.container.storageFolder\" invece di tipo pi\u00f9 specifico, come \"object.container.person.musicArtist\".",
    "OptionPlainVideoItems": "Display all videos as plain video items",
    "OptionPlainVideoItemsHelp": "Se attivato, tutti i video sono rappresentati in didl come \"object.item.videoItem\" invece di tipo pi\u00f9 specifico, come \"object.item.videoItem.movie\".",
    "LabelSupportedMediaTypes": "Tipi di media supportati:",
    "TabIdentification": "identificazione",
    "HeaderIdentification": "Identificazione",
    "TabDirectPlay": "Direct Play",
    "TabContainers": "contenitori",
    "TabCodecs": "Codecs",
    "TabResponses": "Risposte",
    "HeaderProfileInformation": "Informazioni sul profilo",
    "LabelEmbedAlbumArtDidl": "Embed album art in Didl",
    "LabelEmbedAlbumArtDidlHelp": "Alcuni dispositivi preferiscono questo metodo per ottenere le copertine degli album. Altri possono non riuscire a giocare con questa opzione abilitata.",
    "LabelAlbumArtPN": "Album art PN:",
    "LabelAlbumArtHelp": "PN utilizzato per le copertine degli album, all'interno del DLNA: attributo di ProfileId su UPnP: albumArtURI. Alcuni clienti richiedono un valore specifico, indipendentemente dalla dimensione dell'immagine.",
    "LabelAlbumArtMaxWidth": "Album art Larghezza max:",
    "LabelAlbumArtMaxWidthHelp": "Risoluzione max di album esposta tramite UPnP: albumArtURI",
    "LabelAlbumArtMaxHeight": "Art Album Altezza max:",
    "LabelAlbumArtMaxHeightHelp": "Risoluzione max di album esposta tramite UPnP: albumArtURI",
    "LabelIconMaxWidth": "Larghezza max Icon:",
    "LabelIconMaxWidthHelp": "Risoluzione max delle icone esposto tramite UPnP: icona.",
    "LabelIconMaxHeight": "Altezza Icon max:",
    "LabelIconMaxHeightHelp": "Risoluzione max delle icone esposto tramite UPnP: icona.",
    "LabelIdentificationFieldHelp": "Una stringa o regex espressione maiuscole e minuscole.",
    "HeaderProfileServerSettingsHelp": "Controllano questi valori come Media Browser si presenter\u00e0 al dispositivo.",
    "LabelMaxBitrate": "Max bitrate:",
    "LabelMaxBitrateHelp": "Specificare un bitrate massimo in ambienti larghezza di banda limitata, o se il dispositivo impone il suo limite proprio.",
    "LabelMaxStreamingBitrate": "Massimo Bitrate streaming",
    "LabelMaxStreamingBitrateHelp": "Specifica il bitrate massimo per lo streaming",
    "LabelMaxStaticBitrate": "Massimo sinc. Bitrate",
    "LabelMaxStaticBitrateHelp": "Specifica il bitrate massimo quando sincronizzi ad alta qualit\u00e0",
    "LabelMusicStaticBitrate": "Musica sync bitrate:",
    "LabelMusicStaticBitrateHelp": "Specifica il max Bitrate quando sincronizzi la musica",
    "LabelMusicStreamingTranscodingBitrate": "Musica trascodifica bitrate:",
    "LabelMusicStreamingTranscodingBitrateHelp": "Specifica il max Bitrate per lo streaming musica",
    "OptionIgnoreTranscodeByteRangeRequests": "Ignorare le richieste di intervallo di byte di trascodifica",
    "OptionIgnoreTranscodeByteRangeRequestsHelp": "Se abilitata, queste richieste saranno onorati, ma ignorano l'intestazione intervallo di byte.",
    "LabelFriendlyName": "Nome Condiviso",
    "LabelManufacturer": "fabbricante",
    "LabelManufacturerUrl": "fabbricante Url",
    "LabelModelName": "Modello Nome",
    "LabelModelNumber": "Modello Numero",
    "LabelModelDescription": "Modello Descrizione",
    "LabelModelUrl": "Modello Url",
    "LabelSerialNumber": "Numero di serie",
    "LabelDeviceDescription": "Descrizione dispositivo",
    "HeaderIdentificationCriteriaHelp": "Inserire almeno un criterio di identificazione.",
    "HeaderDirectPlayProfileHelp": "Add direct play profiles to indicate which formats the device can handle natively.",
    "HeaderTranscodingProfileHelp": "Aggiungere i profili di transcodifica per indicare quali formati da utilizzare quando \u00e8 richiesta la transcodifica.",
    "HeaderResponseProfileHelp": "Profili di risposta forniscono un modo per personalizzare le informazioni inviate al dispositivo durante la riproduzione di alcuni tipi di media.",
    "LabelXDlnaCap": "X-Dlna cap:",
    "LabelXDlnaCapHelp": "Determines the content of the X_DLNACAP element in the urn:schemas-dlna-org:device-1-0 namespace.",
    "LabelXDlnaDoc": "X-Dlna doc:",
    "LabelXDlnaDocHelp": "Determines the content of the X_DLNADOC element in the urn:schemas-dlna-org:device-1-0 namespace.",
    "LabelSonyAggregationFlags": "Sony aggregation flags:",
    "LabelSonyAggregationFlagsHelp": "Determina il contenuto dell'elemento aggregationFlags nel urn: schemas-sonycom: namespace av.",
    "LabelTranscodingContainer": "contenitore:",
    "LabelTranscodingVideoCodec": "Video codec:",
    "LabelTranscodingVideoProfile": "Video profile:",
    "LabelTranscodingAudioCodec": "Audio codec:",
    "OptionEnableM2tsMode": "Attiva modalit\u00e0 M2TS",
    "OptionEnableM2tsModeHelp": "Attivare la modalit\u00e0 m2ts durante la codifica di mpegts.",
    "OptionEstimateContentLength": "Stimare la lunghezza contenuto quando transcodifica",
    "OptionReportByteRangeSeekingWhenTranscoding": "Segnala che il server supporta la ricerca di byte quando transcodifica",
    "OptionReportByteRangeSeekingWhenTranscodingHelp": "Questo \u00e8 necessario per alcuni dispositivi che il tempo non cercano molto bene.",
    "HeaderSubtitleDownloadingHelp": "Quando Media Browser esegue la scansione dei file video \u00e8 possibile cercare i sottotitoli mancanti, e scaricarli utilizzando un provider sottotitolo come OpenSubtitles.org.",
    "HeaderDownloadSubtitlesFor": "Scarica sottotitoli per:",
    "MessageNoChapterProviders": "Installare un plugin fornitore capitolo come ChapterDb per attivare le opzioni capitolo aggiuntivo.",
    "LabelSkipIfGraphicalSubsPresent": "Salta se il video contiene gi\u00e0 i sottotitoli grafici",
    "LabelSkipIfGraphicalSubsPresentHelp": "Mantenere le versioni del testo di sottotitoli si tradurr\u00e0 in consegna pi\u00f9 efficiente ai clienti di telefonia mobile.",
    "TabSubtitles": "sottotitoli",
    "TabChapters": "capitoli",
    "HeaderDownloadChaptersFor": "Scarica i nomi dei capitoli per:",
    "LabelOpenSubtitlesUsername": "Sottotitoli utente:",
    "LabelOpenSubtitlesPassword": "Sottotitoli password:",
    "HeaderChapterDownloadingHelp": "Quando Media Browser esegue la scansione dei file video \u00e8 possibile scaricare i nomi dei capitoli amichevoli da internet utilizzando i plugin capitolo come ChapterDb",
    "LabelPlayDefaultAudioTrack": "Riprodurre la traccia audio di default indipendentemente dalla lingua",
    "LabelSubtitlePlaybackMode": "Modalit\u00e0 Sottotitolo:",
    "LabelDownloadLanguages": "Scarica lingue:",
    "ButtonRegister": "registro",
    "LabelSkipIfAudioTrackPresent": "Ignora se la traccia audio di default corrisponde alla lingua di download",
    "LabelSkipIfAudioTrackPresentHelp": "Deselezionare questa opzione per assicurare che tutti i video hanno i sottotitoli, a prescindere dalla lingua audio.",
    "HeaderSendMessage": "Invia un messaggio",
    "ButtonSend": "Invia",
    "LabelMessageText": "Testo del messaggio:",
    "MessageNoAvailablePlugins": "Nessun plugin disponibili.",
    "LabelDisplayPluginsFor": "Mostra plugin per:",
    "PluginTabMediaBrowserClassic": "MB Classic",
    "PluginTabMediaBrowserTheater": "MB Theater",
    "LabelEpisodeNamePlain": "Nome Episodio",
    "LabelSeriesNamePlain": "Nome Serie",
    "ValueSeriesNamePeriod": "Nome Serie",
    "ValueSeriesNameUnderscore": "Nome Serie",
    "ValueEpisodeNamePeriod": "Nome Episodio",
    "ValueEpisodeNameUnderscore": "Nome Episodio",
    "LabelSeasonNumberPlain": "Stagione numero",
    "LabelEpisodeNumberPlain": "Episodio numero",
    "LabelEndingEpisodeNumberPlain": "Numero ultimo episodio",
    "HeaderTypeText": "Inserisci il testo",
    "LabelTypeText": "Testo",
    "HeaderSearchForSubtitles": "Ricerca per sottotitoli",
    "MessageNoSubtitleSearchResultsFound": "Nessun elemento trovato",
    "TabDisplay": "Schermo",
    "TabLanguages": "Lingue",
    "TabWebClient": "Dispositivi Web",
    "LabelEnableThemeSongs": "Abilita tema canzoni",
    "LabelEnableBackdrops": "Abilita gli sfondi",
    "LabelEnableThemeSongsHelp": "Se abiltato le canzoni a tema saranno riprodotte mentre visualizzi la tua libreria",
    "LabelEnableBackdropsHelp": "Se abilitato gli sfondi verranno riprodotti mentre visualizzi la tua libreria",
    "HeaderHomePage": "Home Page",
    "HeaderSettingsForThisDevice": "Configurazione per questo dispositivo",
    "OptionAuto": "Automatico",
    "OptionYes": "Si",
    "OptionNo": "No",
    "LabelHomePageSection1": "Sezione 1 pagina iniziale:",
    "LabelHomePageSection2": "Sezione 2 pagina iniziale:",
    "LabelHomePageSection3": "Sezione 3 pagina iniziale:",
    "LabelHomePageSection4": "Sezione 4  pagina iniziale:",
    "OptionMyViewsButtons": "Mie Viste",
    "OptionMyViews": "Mie Viste",
    "OptionMyViewsSmall": "Mie Viste",
    "OptionResumablemedia": "Riprendi",
    "OptionLatestMedia": "Ultimo media",
    "OptionLatestChannelMedia": "Ultime voci del canale",
    "HeaderLatestChannelItems": "Ultime Canale Articoli",
    "OptionNone": "Nessuno",
    "HeaderLiveTv": "Diretta TV",
    "HeaderReports": "Reports",
    "HeaderMetadataManager": "Metadata Manager",
    "HeaderPreferences": "Preferenze",
    "MessageLoadingChannels": "Sto caricando il contenuto del canale",
    "MessageLoadingContent": "Caricamento contenuto....",
    "ButtonMarkRead": "Segna come letto",
    "OptionDefaultSort": "Predefinito",
    "OptionCommunityMostWatchedSort": "Pi\u00f9 visti",
    "TabNextUp": "Da vedere",
    "MessageNoMovieSuggestionsAvailable": "Nessun suggerimento di film sono attualmente disponibili. Iniziare a guardare e valutare i vostri film, e poi tornare per visualizzare le tue segnalazioni.",
    "MessageNoCollectionsAvailable": "Collezioni permettono di godere di raggruppamenti personalizzati di film, serie, album, libri e giochi. Fare clic sul pulsante Nuovo per avviare la creazione di collezioni.",
    "MessageNoPlaylistsAvailable": "Playlist ti permettere di mettere in coda gli elementi da riprodurre.Usa il tasto destro o tap e tieni premuto quindi seleziona elemento da aggiungere",
    "MessageNoPlaylistItemsAvailable": "Questa playlist al momento \u00e8 vuota",
    "HeaderWelcomeToMediaBrowserWebClient": "Benvenuti nel Media Browser Web client",
    "ButtonDismiss": "Dismetti",
    "ButtonTakeTheTour": "Fai il tour",
    "ButtonEditOtherUserPreferences": "Modificare le preferenze personali di questo utente.",
    "LabelChannelStreamQuality": "Preferenziale qualit\u00e0 del flusso internet:",
    "LabelChannelStreamQualityHelp": "In un ambiente a bassa larghezza di banda, limitando la qualit\u00e0 pu\u00f2 contribuire a garantire un'esperienza di Smooth Streaming.",
    "OptionBestAvailableStreamQuality": "Migliore disponibile",
    "LabelEnableChannelContentDownloadingFor": "contenuto del canale in grado di scaricare per:",
    "LabelEnableChannelContentDownloadingForHelp": "Alcuni sostengono canali di download di contenuti prima visione. Attivare questa in enviornments bassa larghezza di banda per scaricare i contenuti del canale durante le ore. Il contenuto viene scaricato come parte del download pianificata canale.",
    "LabelChannelDownloadPath": "Contenuti Canale scaricare il percorso:",
    "LabelChannelDownloadPathHelp": "Specificare un percorso di download personalizzato se lo desideri. Lasciare vuoto per scaricare in una cartella dati di programma interno.",
    "LabelChannelDownloadAge": "Elimina contenuto dopo: (giorni)",
    "LabelChannelDownloadAgeHelp": "Contenuti scaricati pi\u00f9 di questa et\u00e0 sar\u00e0 cancellato. Rimarr\u00e0 giocabile via internet in streaming.",
    "ChannelSettingsFormHelp": "Installare canali come trailer e Vimeo nel catalogo plugin.",
    "LabelSelectCollection": "Seleziona Collezione:",
    "ButtonOptions": "Opzioni",
    "ViewTypeMovies": "Film",
    "ViewTypeTvShows": "Tv",
    "ViewTypeGames": "Giochi",
    "ViewTypeMusic": "Musica",
    "ViewTypeBoxSets": "Collezioni",
    "ViewTypeChannels": "Canali",
    "ViewTypeLiveTV": "Tv diretta",
    "ViewTypeLiveTvNowPlaying": "Ora in onda",
    "ViewTypeLatestGames": "Ultimi Giorchi",
    "ViewTypeRecentlyPlayedGames": "Guardato di recente",
    "ViewTypeGameFavorites": "Preferiti",
    "ViewTypeGameSystems": "Configurazione gioco",
    "ViewTypeGameGenres": "Generi",
    "ViewTypeTvResume": "Riprendi",
    "ViewTypeTvNextUp": "Prossimi",
    "ViewTypeTvLatest": "Ultimi",
    "ViewTypeTvShowSeries": "Serie",
    "ViewTypeTvGenres": "Generi",
    "ViewTypeTvFavoriteSeries": "Serie Preferite",
    "ViewTypeTvFavoriteEpisodes": "Episodi Preferiti",
    "ViewTypeMovieResume": "Riprendi",
    "ViewTypeMovieLatest": "Ultimi",
    "ViewTypeMovieMovies": "Film",
    "ViewTypeMovieCollections": "Collezioni",
    "ViewTypeMovieFavorites": "Preferiti",
    "ViewTypeMovieGenres": "Generi",
    "ViewTypeMusicLatest": "Ultimi",
    "ViewTypeMusicAlbums": "Album",
    "ViewTypeMusicAlbumArtists": "Album Artisti",
    "HeaderOtherDisplaySettings": "Impostazioni Video",
    "ViewTypeMusicSongs": "Canzoni",
    "ViewTypeMusicFavorites": "Preferiti",
    "ViewTypeMusicFavoriteAlbums": "Album preferiti",
    "ViewTypeMusicFavoriteArtists": "Artisti preferiti",
    "ViewTypeMusicFavoriteSongs": "Canzoni Preferite",
    "HeaderMyViews": "Mie viste",
    "LabelSelectFolderGroups": "Automaticamente i contenuti del gruppo dalle seguenti cartelle nella vista come film, musica e TV:",
    "LabelSelectFolderGroupsHelp": "Le cartelle che siano deselezionate verranno visualizzati da soli nel loro punto di vista.",
    "OptionDisplayAdultContent": "Visualizzazioni contenuti per adulti",
    "OptionLibraryFolders": "Cartelle dei media",
    "TitleRemoteControl": "Telecomando",
    "OptionLatestTvRecordings": "Ultime registrazioni",
    "LabelProtocolInfo": "Info.protocollo:",
    "LabelProtocolInfoHelp": "Il valore che verr\u00e0 utilizzato quando si risponde a GetProtocolInfo richieste dal dispositivo.",
    "TabKodiMetadata": "Kodi",
    "HeaderKodiMetadataHelp": "Media Browser include il supporto nativo per i metadati Kodi Nfo e immagini. Per attivare o disattivare i metadati Kodi, utilizzare la scheda Avanzate per configurare le opzioni per i tipi di media.",
    "LabelKodiMetadataUser": "Add user watch data to nfo's for:",
    "LabelKodiMetadataUserHelp": "Attivare questa opzione per mantenere i dati di orologi sincronizzati tra il Media Browser e Kodi.",
    "LabelKodiMetadataDateFormat": "Data di uscita Formato:",
    "LabelKodiMetadataDateFormatHelp": "Tutte le date all'interno del nfo verranno letti e scritti utilizzando questo formato.",
    "LabelKodiMetadataSaveImagePaths": "Salva percorsi delle immagini all'interno dei file NFO",
    "LabelKodiMetadataSaveImagePathsHelp": "Questo \u00e8 consigliato se si dispone di nomi di file immagine che non sono conformi alle linee guida Kodi.",
    "LabelKodiMetadataEnablePathSubstitution": "Abilita sostituzione di percorso",
    "LabelKodiMetadataEnablePathSubstitutionHelp": "Consente percorso sostituzione dei percorsi delle immagini utilizzando le impostazioni di sostituzione percorso del server.",
    "LabelKodiMetadataEnablePathSubstitutionHelp2": "Vedere la sostituzione percorso.",
    "LabelGroupChannelsIntoViews": "Visualizzare i seguenti canali direttamente dentro le mie visite:",
    "LabelGroupChannelsIntoViewsHelp": "Se abilitata, questi canali verranno visualizzati direttamente accanto ad altri punti di vista. Se disattivato, saranno visualizzati all'interno di una visione canali separati.",
    "LabelDisplayCollectionsView": "Visualizzare una vista collezioni di mostrare collezioni di film",
    "LabelKodiMetadataEnableExtraThumbs": "Copia extrafanart in extrathumbs",
    "LabelKodiMetadataEnableExtraThumbsHelp": "Copia extrafanart in extrathumbs",
    "TabServices": "Servizi",
    "TabLogs": "Logs",
    "HeaderServerLogFiles": "Server log files:",
    "TabBranding": "Branding",
    "HeaderBrandingHelp": "Personalizzare l'aspetto del browser media per soddisfare le esigenze del vostro gruppo o organizzazione.",
    "LabelLoginDisclaimer": "Login disclaimer:",
    "LabelLoginDisclaimerHelp": "Questo verr\u00e0 visualizzato nella parte inferiore della pagina di accesso.",
    "LabelAutomaticallyDonate": "Donare automaticamente questo importo ogni mese",
    "LabelAutomaticallyDonateHelp": "\u00c8 possibile annullare in qualsiasi momento tramite il vostro conto PayPal.",
    "OptionList": "Lista",
    "TabDashboard": "Pannello Controllo",
    "TitleServer": "Server",
    "LabelCache": "Cache:",
    "LabelLogs": "Log:",
    "LabelMetadata": "Metadata:",
    "LabelImagesByName": "Immagini per nome:",
    "LabelTranscodingTemporaryFiles": "Transcodifica file temporanei:",
    "HeaderLatestMusic": "Musica Recente",
    "HeaderBranding": "Branding",
    "HeaderApiKeys": "Chiavi Api",
    "HeaderApiKeysHelp": "Le applicazioni estrene richiedono una chiave Api per comunicare con Media Browser. Le chiavi sono create attraverso il log-in con un account Media Browse, o manualmente rilasciando una chiave all'applicazione.",
    "HeaderApiKey": "Chiave Api",
    "HeaderApp": "App",
    "HeaderDevice": "Dispositivo",
    "HeaderUser": "Utente",
    "HeaderDateIssued": "data di pubblicazione",
    "LabelChapterName": "Capitolo {0}",
    "HeaderNewApiKey": "Nuova Chiave Api",
    "LabelAppName": "Nome app",
    "LabelAppNameExample": "Example: Sickbeard, NzbDrone",
    "HeaderNewApiKeyHelp": "Garantisci all'applicazione il permesso di comunicare con Media Browser.",
    "HeaderHttpHeaders": "Http Headers",
    "HeaderIdentificationHeader": "Identification Header",
    "LabelValue": "valore:",
    "LabelMatchType": "Match type:",
    "OptionEquals": "Uguale",
    "OptionRegex": "Regex",
    "OptionSubstring": "Substring",
    "TabView": "Vista",
    "TabSort": "Ordina",
    "TabFilter": "Filtra",
    "ButtonView": "Vista",
    "LabelPageSize": "Limite articolo:",
    "LabelPath": "Percorso:",
    "LabelView": "Vista:",
    "TabUsers": "Utenti",
    "LabelSortName": "Nome ordinato:",
    "LabelDateAdded": "Aggiunto il",
    "HeaderFeatures": "Caratteristiche",
    "HeaderAdvanced": "Avanzato",
    "ButtonSync": "Sinc.",
    "TabScheduledTasks": "Operazioni pianificate",
    "HeaderChapters": "Capitoli",
    "HeaderResumeSettings": "Recupera impostazioni",
    "TabSync": "Sinc",
    "TitleUsers": "Utenti",
    "LabelProtocol": "Protocollo:",
    "OptionProtocolHttp": "Http",
    "OptionProtocolHls": "Http Live Streaming",
    "LabelContext": "Contenuto:",
    "OptionContextStreaming": "Streaming",
    "OptionContextStatic": "Sinc",
    "ButtonAddToPlaylist": "Aggiungi alla playlist",
    "TabPlaylists": "Playlists",
    "ButtonClose": "Chiudi",
    "LabelAllLanguages": "Tutte le lingue",
    "HeaderBrowseOnlineImages": "Sfoglia le immagini sul web",
    "LabelSource": "Origine:",
    "OptionAll": "Tutto",
    "LabelImage": "Immagine:",
    "ButtonBrowseImages": "Sfoglia immagini",
    "HeaderImages": "Immagini",
    "HeaderBackdrops": "Sfondi",
    "HeaderScreenshots": "Immagini",
    "HeaderAddUpdateImage": "Aggiungi\/aggiorna immagine",
    "LabelJpgPngOnly": "JPG\/PNG solamente",
    "LabelImageType": "Tipo immagine",
    "OptionPrimary": "Primaria",
    "OptionArt": "Art",
    "OptionBox": "Box",
    "OptionBoxRear": "Box rear",
    "OptionDisc": "Disc",
    "OptionLogo": "Logo",
    "OptionMenu": "Menu",
    "OptionScreenshot": "Immagine",
    "OptionLocked": "Bloccato",
    "OptionUnidentified": "Non identificata",
    "OptionMissingParentalRating": "Voto genitori mancante",
    "OptionStub": "Stub",
    "HeaderEpisodes": "Episodi:",
    "OptionSeason0": "Stagione 0",
    "LabelReport": "Report:",
    "OptionReportSongs": "Canzoni",
    "OptionReportSeries": "Series",
    "OptionReportSeasons": "Stagioni",
    "OptionReportTrailers": "Trailers",
    "OptionReportMusicVideos": "Video musicali",
    "OptionReportMovies": "Film",
    "OptionReportHomeVideos": "Video personali",
    "OptionReportGames": "Giochi",
    "OptionReportEpisodes": "Episodi",
    "OptionReportCollections": "Collezioni",
    "OptionReportBooks": "Libri",
    "OptionReportArtists": "Cantanti",
    "OptionReportAlbums": "Album",
    "OptionReportAdultVideos": "Video x adulti",
    "ButtonMore": "Dettagli",
    "HeaderActivity": "Attivit\u00e0",
    "ScheduledTaskStartedWithName": "{0} Avviati"
}